…
After completing the 351 challenge in August, I decided to rest on my laurels, because I needed to. A win after a long time, this was something I wanted to celebrate. A small caveat, however, was that I had 'finished' some towns in a somewhat incomplete way. I call these 'stub' towns. These were towns where, because of the various combination of routes I chose, they weren't really on the way. I would have had to take a very long detour to include them. Or, because of the nature of availability of public transport (or rather, lack thereof), including these towns in reasonable lengthed bike rides was difficult.

So how did I incorporate them in a ride? I would take a slight detour and just cross the border enough to 'ride through' that town. As such, as of August, there were 663 towns where I rode less than 2 miles, and 24 towns where I rode less than 1 mile. My goal for the 2024 riding season is to cover as many of these as I can. **For these rides, I am going to consider renting a car**.



```
## # A tibble: 351 x 2
##    muni_name   latest_ride
##    <chr>       <date>     
##  1 Acton       2023-10-28 
##  2 Ayer        2023-10-28 
##  3 Bernardston 2023-10-28 
##  4 Cambridge   2023-10-28 
##  5 Carlisle    2023-10-28 
##  6 Chelmsford  2023-10-28 
##  7 Concord     2023-10-28 
##  8 Dunstable   2023-10-28 
##  9 Erving      2023-10-28 
## 10 Gill        2023-10-28 
## # i 341 more rows
```
…
